[
  {
    "id": 1,
    "projectId": 1,
    "performerId": 1,
    "name": "real-time",
    "description": "Quo sint aut et ea voluptatem omnis ut.",
    "state": 2,
    "createdAt": "2020-05-15T22:50:46.0860832+00:00",
    "finishedAt": null
  },
  {
    "id": 2,
    "projectId": 1,
    "performerId": 2,
    "name": "product Direct",
    "description": "Eum a eum.",
    "state": 2,
    "createdAt": "2019-02-15T15:06:52.0600666+00:00",
    "finishedAt": null
  },
  {
    "id": 3,
    "projectId": 2,
    "performerId": 4,
    "name": "bypass",
    "description": "Sint voluptatem quas.",
    "state": 2,
    "createdAt": "2017-08-16T06:13:44.5773845+00:00",
    "finishedAt": "2020-09-09T06:34:47.460216+00:00"
  },
  {
    "id": 4,
    "projectId": 2,
    "performerId": 4,
    "name": "withdrawal contextually",
    "description": "Delectus quibusdam id quia iure neque maiores molestias sed aut.",
    "state": 2,
    "createdAt": "2018-10-19T00:58:34.8045103+00:00",
    "finishedAt": null
  },
  {
    "id": 5,
    "projectId": 2,
    "performerId": 5,
    "name": "mobile Organized",
    "description": "Earum blanditiis repellendus qui magni aliquam quisquam consequatur odio ducimus.",
    "state": 2,
    "createdAt": "2018-06-15T06:03:48.0732466+00:00",
    "finishedAt": null
  },
  {
    "id": 6,
    "projectId": 2,
    "performerId": 5,
    "name": "world-class Circles",
    "description": "Reiciendis iusto rerum non et aut eaque.",
    "state": 2,
    "createdAt": "2020-05-21T14:56:53.8117818+00:00",
    "finishedAt": null
  },
  {
    "id": 7,
    "projectId": 2,
    "performerId": 5,
    "name": "Automotive & Tools",
    "description": "Et rerum ad.",
    "state": 2,
    "createdAt": "2018-07-10T16:21:12.0886153+00:00",
    "finishedAt": null
  },
  {
    "id": 8,
    "projectId": 3,
    "performerId": 4,
    "name": "payment methodologies",
    "description": "Voluptas nostrum sint.",
    "state": 2,
    "createdAt": "2019-05-07T20:29:10.058295+00:00",
    "finishedAt": null
  },
  {
    "id": 9,
    "projectId": 3,
    "performerId": 4,
    "name": "Borders Mountain",
    "description": "Rerum iure soluta consequatur velit aut.",
    "state": 2,
    "createdAt": "2020-06-19T11:42:55.0738847+00:00",
    "finishedAt": null
  },
  {
    "id": 10,
    "projectId": 3,
    "performerId": 5,
    "name": "navigate",
    "description": "Iure sequi unde.",
    "state": 2,
    "createdAt": "2020-04-14T12:55:04.4031688+00:00",
    "finishedAt": null
  }
]
