[
  {
    "id": 1,
    "name": "Durgan Group",
    "createdAt": "2017-03-31T02:29:28.3740504+00:00"
  },
  {
    "id": 2,
    "name": "Kassulke LLC",
    "createdAt": "2019-02-21T15:47:30.3797852+00:00"
  }
]
